ID: 3, Topic: 19:32:02
Email: test_7feb@gmail.comDate: 2022-02-07Time: 19:32:02
Event Occured: Logout
full Message: {'activity': 'Logout', 'email': 'test_7feb@gmail.com', 'time': '2022-02-07 19:32:02.', 'topic': 'account_service'}

ID: 9, Topic: 21:26:30
Email: 7feb1@gmail.comDate: 2022-02-07Time: 21:26:30
Event Occured: Logout
full Message: {'activity': 'Logout', 'email': '7feb1@gmail.com', 'time': '2022-02-07 21:26:30.', 'topic': 'account_service'}

