ID: 2, Topic: 19:30:47
Email: test_7feb@gmail.comDate: 2022-02-07Time: 19:30:47
Event Occured: Login
full Message: {'activity': 'Login', 'email': 'test_7feb@gmail.com', 'time': '2022-02-07 19:30:47.', 'topic': 'account_service'}

ID: 6, Topic: 21:16:15
Email: test_7feb@gmail.comDate: 2022-02-07Time: 21:16:15
Event Occured: Login
full Message: {'activity': 'Login', 'email': 'test_7feb@gmail.com', 'time': '2022-02-07 21:16:15.', 'topic': 'account_service'}

ID: 7, Topic: 21:16:17
Email: 7feb1@gmail.comDate: 2022-02-07Time: 21:16:17
Event Occured: Login
full Message: {'activity': 'Login', 'email': '7feb1@gmail.com', 'time': '2022-02-07 21:16:17.', 'topic': 'account_service'}

ID: 8, Topic: 21:16:18
Email: 7feb2@gmail.comDate: 2022-02-07Time: 21:16:18
Event Occured: Login
full Message: {'activity': 'Login', 'email': '7feb2@gmail.com', 'time': '2022-02-07 21:16:18.', 'topic': 'account_service'}

ID: 12, Topic: 19:23:07
Email: tester@gmail.comDate: 2022-02-09Time: 19:23:07
Event Occured: Login
full Message: {'activity': 'Login', 'email': 'tester@gmail.com', 'time': '2022-02-09 19:23:07.', 'topic': 'account_service'}

ID: 14, Topic: 20:47:06
Email: tester@gmail.comDate: 2022-02-09Time: 20:47:06
Event Occured: Login
full Message: {'activity': 'Login', 'email': 'tester@gmail.com', 'time': '2022-02-09 20:47:06.', 'topic': 'account_service'}

ID: 17, Topic: 13:13:07
Email: tester@gmail.comDate: 2022-02-12Time: 13:13:07
Event Occured: Login
full Message: {'activity': 'Login', 'email': 'tester@gmail.com', 'time': '2022-02-12 13:13:07', 'topic': 'account_service'}

ID: 18, Topic: 13:14:34
Email: tester@gmail.comDate: 2022-02-12Time: 13:14:34
Event Occured: Login
full Message: {'activity': 'Login', 'email': 'tester@gmail.com', 'time': '2022-02-12 13:14:34', 'topic': 'account_service'}

ID: 21, Topic: 13:35:31
Email: test_12feb@gmail.comDate: 2022-02-12Time: 13:35:31
Event Occured: Login
full Message: {'activity': 'Login', 'email': 'test_12feb@gmail.com', 'time': '2022-02-12 13:35:31', 'topic': 'account_service'}

ID: 23, Topic: 13:35:34
Email: darren@gmail.comDate: 2022-02-12Time: 13:35:34
Event Occured: Login
full Message: {'activity': 'Login', 'email': 'darren@gmail.com', 'time': '2022-02-12 13:35:34', 'topic': 'account_service'}

